<?xml version="1.0" encoding="UTF-8" standalone="no"?>
<!-- Created with Inkscape (http://www.inkscape.org/) -->

<svg
   xmlns:osb="http://www.openswatchbook.org/uri/2009/osb"
   xmlns:dc="http://purl.org/dc/elements/1.1/"
   xmlns:cc="http://creativecommons.org/ns#"
   xmlns:rdf="http://www.w3.org/1999/02/22-rdf-syntax-ns#"
   xmlns:svg="http://www.w3.org/2000/svg"
   xmlns="http://www.w3.org/2000/svg"
   xmlns:xlink="http://www.w3.org/1999/xlink"
   xmlns:sodipodi="http://sodipodi.sourceforge.net/DTD/sodipodi-0.dtd"
   xmlns:inkscape="http://www.inkscape.org/namespaces/inkscape"
   width="210mm"
   height="297mm"
   viewBox="0 0 210 297"
   version="1.1"
   id="svg8"
   inkscape:version="0.92.1 r"
   sodipodi:docname="tileset.svg"
   inkscape:export-filename="/home/beto/Documents/bys-games/ttris/assets/textures/defaultTileset.png"
   inkscape:export-xdpi="96"
   inkscape:export-ydpi="96">
  <defs
     id="defs2">
    <linearGradient
       inkscape:collect="always"
       id="linearGradient6687">
      <stop
         style="stop-color:#ffffff;stop-opacity:1"
         offset="0"
         id="stop6683" />
      <stop
         style="stop-color:#e49fb4;stop-opacity:0.97647059"
         offset="1"
         id="stop6685" />
    </linearGradient>
    <linearGradient
       id="linearGradient6677"
       inkscape:collect="always">
      <stop
         id="stop6673"
         offset="0"
         style="stop-color:#ffffff;stop-opacity:1" />
      <stop
         id="stop6675"
         offset="1"
         style="stop-color:#5d31e1;stop-opacity:0.97647059" />
    </linearGradient>
    <linearGradient
       inkscape:collect="always"
       id="linearGradient6667">
      <stop
         style="stop-color:#ffffff;stop-opacity:1"
         offset="0"
         id="stop6663" />
      <stop
         style="stop-color:#e81429;stop-opacity:0.97647059"
         offset="1"
         id="stop6665" />
    </linearGradient>
    <linearGradient
       id="linearGradient6657"
       inkscape:collect="always">
      <stop
         id="stop6653"
         offset="0"
         style="stop-color:#ffffff;stop-opacity:1" />
      <stop
         id="stop6655"
         offset="1"
         style="stop-color:#e88e29;stop-opacity:0.97647059" />
    </linearGradient>
    <linearGradient
       id="linearGradient6647"
       inkscape:collect="always">
      <stop
         id="stop6643"
         offset="0"
         style="stop-color:#ffffff;stop-opacity:1" />
      <stop
         id="stop6645"
         offset="1"
         style="stop-color:#55eb29;stop-opacity:0.97647059" />
    </linearGradient>
    <linearGradient
       inkscape:collect="always"
       id="linearGradient6637">
      <stop
         style="stop-color:#ffffff;stop-opacity:1"
         offset="0"
         id="stop6633" />
      <stop
         style="stop-color:#e8eb29;stop-opacity:0.97647059"
         offset="1"
         id="stop6635" />
    </linearGradient>
    <linearGradient
       id="linearGradient6627"
       inkscape:collect="always">
      <stop
         id="stop6623"
         offset="0"
         style="stop-color:#ffffff;stop-opacity:1" />
      <stop
         id="stop6625"
         offset="1"
         style="stop-color:#9129ba;stop-opacity:0.97647059" />
    </linearGradient>
    <linearGradient
       inkscape:collect="always"
       id="linearGradient6613">
      <stop
         style="stop-color:#ffffff;stop-opacity:1"
         offset="0"
         id="stop6609" />
      <stop
         style="stop-color:#5ddee1;stop-opacity:0.97647059"
         offset="1"
         id="stop6611" />
    </linearGradient>
    <linearGradient
       inkscape:collect="always"
       id="linearGradient6159">
      <stop
         style="stop-color:#f73d00;stop-opacity:1;"
         offset="0"
         id="stop6155" />
      <stop
         style="stop-color:#f73d00;stop-opacity:0;"
         offset="1"
         id="stop6157" />
    </linearGradient>
    <linearGradient
       inkscape:collect="always"
       id="linearGradient6151">
      <stop
         style="stop-color:#949790;stop-opacity:1;"
         offset="0"
         id="stop6147" />
      <stop
         style="stop-color:#949790;stop-opacity:0;"
         offset="1"
         id="stop6149" />
    </linearGradient>
    <linearGradient
       inkscape:collect="always"
       id="linearGradient6133">
      <stop
         style="stop-color:#273060;stop-opacity:1;"
         offset="0"
         id="stop6129" />
      <stop
         style="stop-color:#273060;stop-opacity:0;"
         offset="1"
         id="stop6131" />
    </linearGradient>
    <linearGradient
       inkscape:collect="always"
       id="linearGradient6123">
      <stop
         style="stop-color:#ff0300;stop-opacity:1;"
         offset="0"
         id="stop6119" />
      <stop
         style="stop-color:#ff0300;stop-opacity:0;"
         offset="1"
         id="stop6121" />
    </linearGradient>
    <linearGradient
       inkscape:collect="always"
       id="linearGradient6101">
      <stop
         style="stop-color:#1efa1f;stop-opacity:1;"
         offset="0"
         id="stop6097" />
      <stop
         style="stop-color:#1efa1f;stop-opacity:0;"
         offset="1"
         id="stop6099" />
    </linearGradient>
    <linearGradient
       inkscape:collect="always"
       id="linearGradient6091">
      <stop
         style="stop-color:#ffff00;stop-opacity:1"
         offset="0"
         id="stop6087" />
      <stop
         style="stop-color:#fbfc3a;stop-opacity:0;"
         offset="1"
         id="stop6089" />
    </linearGradient>
    <linearGradient
       inkscape:collect="always"
       id="linearGradient6081">
      <stop
         style="stop-color:#ed136e;stop-opacity:1;"
         offset="0"
         id="stop6077" />
      <stop
         style="stop-color:#ed136e;stop-opacity:0;"
         offset="1"
         id="stop6079" />
    </linearGradient>
    <linearGradient
       inkscape:collect="always"
       id="linearGradient6071">
      <stop
         style="stop-color:#38aade;stop-opacity:1"
         offset="0"
         id="stop6067" />
      <stop
         style="stop-color:#38aade;stop-opacity:0;"
         offset="1"
         id="stop6069" />
    </linearGradient>
    <linearGradient
       id="linearGradient4719"
       osb:paint="solid">
      <stop
         style="stop-color:#ffffff;stop-opacity:1;"
         offset="0"
         id="stop4717" />
    </linearGradient>
    <linearGradient
       id="linearGradient4713"
       osb:paint="solid">
      <stop
         style="stop-color:#ffffff;stop-opacity:1;"
         offset="0"
         id="stop4711" />
    </linearGradient>
    <linearGradient
       id="linearGradient4707"
       osb:paint="solid">
      <stop
         style="stop-color:#ffffff;stop-opacity:1;"
         offset="0"
         id="stop4705" />
    </linearGradient>
    <linearGradient
       id="linearGradient4701"
       osb:paint="solid">
      <stop
         style="stop-color:#ffffff;stop-opacity:1;"
         offset="0"
         id="stop4699" />
    </linearGradient>
    <linearGradient
       id="linearGradient4695"
       osb:paint="solid">
      <stop
         style="stop-color:#ffffff;stop-opacity:1;"
         offset="0"
         id="stop4693" />
    </linearGradient>
    <linearGradient
       id="linearGradient4689"
       osb:paint="solid">
      <stop
         style="stop-color:#ffffff;stop-opacity:1;"
         offset="0"
         id="stop4687" />
    </linearGradient>
    <linearGradient
       id="linearGradient4683"
       osb:paint="solid">
      <stop
         style="stop-color:#ffffff;stop-opacity:1;"
         offset="0"
         id="stop4681" />
    </linearGradient>
    <linearGradient
       id="linearGradient4677"
       osb:paint="solid">
      <stop
         style="stop-color:#ffffff;stop-opacity:1;"
         offset="0"
         id="stop4675" />
    </linearGradient>
    <linearGradient
       id="linearGradient4671"
       osb:paint="solid">
      <stop
         style="stop-color:#ff002d;stop-opacity:1;"
         offset="0"
         id="stop4669" />
    </linearGradient>
    <linearGradient
       id="linearGradient4665"
       osb:paint="solid">
      <stop
         style="stop-color:#ffff30;stop-opacity:1;"
         offset="0"
         id="stop4663" />
    </linearGradient>
    <linearGradient
       id="linearGradient4659"
       osb:paint="solid">
      <stop
         style="stop-color:#1efa1f;stop-opacity:1;"
         offset="0"
         id="stop4657" />
    </linearGradient>
    <linearGradient
       id="linearGradient4653"
       osb:paint="solid">
      <stop
         style="stop-color:#223dac;stop-opacity:1;"
         offset="0"
         id="stop4651" />
    </linearGradient>
    <linearGradient
       id="linearGradient4647"
       osb:paint="solid">
      <stop
         style="stop-color:#fbfc3a;stop-opacity:1;"
         offset="0"
         id="stop4645" />
    </linearGradient>
    <linearGradient
       id="linearGradient4641"
       osb:paint="solid">
      <stop
         style="stop-color:#ff791b;stop-opacity:1;"
         offset="0"
         id="stop4639" />
    </linearGradient>
    <linearGradient
       id="linearGradient4635"
       osb:paint="solid">
      <stop
         style="stop-color:#000600;stop-opacity:1;"
         offset="0"
         id="stop4633" />
    </linearGradient>
    <linearGradient
       inkscape:collect="always"
       xlink:href="#linearGradient4677"
       id="linearGradient4679"
       x1="13.266802"
       y1="92.903227"
       x2="21.733468"
       y2="92.903227"
       gradientUnits="userSpaceOnUse"
       gradientTransform="translate(39.876488,-8.4572173)" />
    <linearGradient
       inkscape:collect="always"
       xlink:href="#linearGradient4677"
       id="linearGradient6065"
       gradientUnits="userSpaceOnUse"
       gradientTransform="translate(39.141497,26.688726)"
       x1="13.266802"
       y1="92.903227"
       x2="21.733468"
       y2="92.903227" />
    <linearGradient
       inkscape:collect="always"
       xlink:href="#linearGradient6071"
       id="linearGradient6073"
       x1="60.874962"
       y1="123.82529"
       x2="69.341629"
       y2="115.35862"
       gradientUnits="userSpaceOnUse"
       gradientTransform="translate(-130.21659)" />
    <linearGradient
       inkscape:collect="always"
       xlink:href="#linearGradient6081"
       id="linearGradient6083"
       x1="69.341629"
       y1="123.82529"
       x2="77.808296"
       y2="115.35862"
       gradientUnits="userSpaceOnUse"
       gradientTransform="translate(-147.14993)" />
    <linearGradient
       inkscape:collect="always"
       xlink:href="#linearGradient6091"
       id="linearGradient6093"
       x1="52.408295"
       y1="132.29195"
       x2="60.874962"
       y2="123.82529"
       gradientUnits="userSpaceOnUse"
       gradientTransform="translate(-113.28326)" />
    <linearGradient
       inkscape:collect="always"
       xlink:href="#linearGradient6101"
       id="linearGradient6103"
       x1="60.874962"
       y1="132.29195"
       x2="69.341629"
       y2="123.82528"
       gradientUnits="userSpaceOnUse"
       gradientTransform="translate(-130.21659)" />
    <linearGradient
       inkscape:collect="always"
       xlink:href="#linearGradient6123"
       id="linearGradient6125"
       x1="52.408295"
       y1="140.75861"
       x2="60.874962"
       y2="132.29195"
       gradientUnits="userSpaceOnUse"
       gradientTransform="translate(-113.28326)" />
    <linearGradient
       inkscape:collect="always"
       xlink:href="#linearGradient6133"
       id="linearGradient6135"
       x1="60.874962"
       y1="140.75861"
       x2="69.341629"
       y2="132.29195"
       gradientUnits="userSpaceOnUse"
       gradientTransform="translate(-130.21659)" />
    <linearGradient
       inkscape:collect="always"
       xlink:href="#linearGradient6151"
       id="linearGradient6153"
       x1="69.341629"
       y1="140.75861"
       x2="77.808296"
       y2="132.29195"
       gradientUnits="userSpaceOnUse"
       gradientTransform="translate(-147.14993)" />
    <linearGradient
       inkscape:collect="always"
       xlink:href="#linearGradient6159"
       id="linearGradient6161"
       x1="-77.808296"
       y1="123.82529"
       x2="-69.870796"
       y2="132.82111"
       gradientUnits="userSpaceOnUse"
       gradientTransform="translate(-5.4394532e-6,-256.11723)" />
    <linearGradient
       inkscape:collect="always"
       xlink:href="#linearGradient6071"
       id="linearGradient6181"
       gradientUnits="userSpaceOnUse"
       gradientTransform="translate(-164.07652,7.2960738)"
       x1="60.874962"
       y1="123.82529"
       x2="69.341629"
       y2="115.35862" />
    <linearGradient
       inkscape:collect="always"
       xlink:href="#linearGradient4677"
       id="linearGradient6183"
       gradientUnits="userSpaceOnUse"
       gradientTransform="translate(73.001429,33.9848)"
       x1="13.266802"
       y1="92.903227"
       x2="21.733468"
       y2="92.903227" />
    <linearGradient
       inkscape:collect="always"
       xlink:href="#linearGradient6081"
       id="linearGradient6185"
       gradientUnits="userSpaceOnUse"
       gradientTransform="translate(-181.00986,7.2960738)"
       x1="69.341629"
       y1="123.82529"
       x2="77.808296"
       y2="115.35862" />
    <linearGradient
       inkscape:collect="always"
       xlink:href="#linearGradient6091"
       id="linearGradient6187"
       gradientUnits="userSpaceOnUse"
       gradientTransform="translate(-147.14319,7.2960738)"
       x1="52.408295"
       y1="132.29195"
       x2="60.874962"
       y2="123.82529" />
    <linearGradient
       inkscape:collect="always"
       xlink:href="#linearGradient6101"
       id="linearGradient6189"
       gradientUnits="userSpaceOnUse"
       gradientTransform="translate(-164.07652,7.2960738)"
       x1="60.874962"
       y1="132.29195"
       x2="69.341629"
       y2="123.82528" />
    <linearGradient
       inkscape:collect="always"
       xlink:href="#linearGradient6159"
       id="linearGradient6191"
       gradientUnits="userSpaceOnUse"
       gradientTransform="translate(-33.859937,-263.41331)"
       x1="-77.808296"
       y1="123.82529"
       x2="-69.870796"
       y2="132.82111" />
    <linearGradient
       inkscape:collect="always"
       xlink:href="#linearGradient6123"
       id="linearGradient6193"
       gradientUnits="userSpaceOnUse"
       gradientTransform="translate(-147.14319,7.2960738)"
       x1="52.408295"
       y1="140.75861"
       x2="60.874962"
       y2="132.29195" />
    <linearGradient
       inkscape:collect="always"
       xlink:href="#linearGradient6133"
       id="linearGradient6195"
       gradientUnits="userSpaceOnUse"
       gradientTransform="translate(-164.07652,7.2960738)"
       x1="60.874962"
       y1="140.75861"
       x2="69.341629"
       y2="132.29195" />
    <linearGradient
       inkscape:collect="always"
       xlink:href="#linearGradient6151"
       id="linearGradient6197"
       gradientUnits="userSpaceOnUse"
       gradientTransform="translate(-181.00986,7.2960738)"
       x1="69.341629"
       y1="140.75861"
       x2="77.808296"
       y2="132.29195" />
    <linearGradient
       inkscape:collect="always"
       xlink:href="#linearGradient6071"
       id="linearGradient6335"
       gradientUnits="userSpaceOnUse"
       gradientTransform="translate(-206.69827,10.961705)"
       x1="60.874962"
       y1="123.82529"
       x2="69.341629"
       y2="115.35862" />
    <linearGradient
       inkscape:collect="always"
       xlink:href="#linearGradient4677"
       id="linearGradient6337"
       gradientUnits="userSpaceOnUse"
       gradientTransform="translate(115.62317,37.650422)"
       x1="13.266802"
       y1="92.903227"
       x2="21.733468"
       y2="92.903227" />
    <linearGradient
       inkscape:collect="always"
       xlink:href="#linearGradient6081"
       id="linearGradient6339"
       gradientUnits="userSpaceOnUse"
       gradientTransform="translate(-223.63161,10.961705)"
       x1="69.341629"
       y1="123.82529"
       x2="77.808296"
       y2="115.35862" />
    <linearGradient
       inkscape:collect="always"
       xlink:href="#linearGradient6091"
       id="linearGradient6341"
       gradientUnits="userSpaceOnUse"
       gradientTransform="translate(-189.76494,10.961705)"
       x1="52.408295"
       y1="132.29195"
       x2="60.874962"
       y2="123.82529" />
    <linearGradient
       inkscape:collect="always"
       xlink:href="#linearGradient6101"
       id="linearGradient6343"
       gradientUnits="userSpaceOnUse"
       gradientTransform="translate(-206.69827,10.961705)"
       x1="60.874962"
       y1="132.29195"
       x2="69.341629"
       y2="123.82528" />
    <linearGradient
       inkscape:collect="always"
       xlink:href="#linearGradient6159"
       id="linearGradient6345"
       gradientUnits="userSpaceOnUse"
       gradientTransform="translate(-76.481687,-267.07894)"
       x1="-77.808296"
       y1="123.82529"
       x2="-69.870796"
       y2="132.82111" />
    <linearGradient
       inkscape:collect="always"
       xlink:href="#linearGradient6123"
       id="linearGradient6347"
       gradientUnits="userSpaceOnUse"
       gradientTransform="translate(-189.76494,10.961705)"
       x1="52.408295"
       y1="140.75861"
       x2="60.874962"
       y2="132.29195" />
    <linearGradient
       inkscape:collect="always"
       xlink:href="#linearGradient6133"
       id="linearGradient6349"
       gradientUnits="userSpaceOnUse"
       gradientTransform="translate(-206.69827,10.961705)"
       x1="60.874962"
       y1="140.75861"
       x2="69.341629"
       y2="132.29195" />
    <linearGradient
       inkscape:collect="always"
       xlink:href="#linearGradient6151"
       id="linearGradient6351"
       gradientUnits="userSpaceOnUse"
       gradientTransform="translate(-223.63161,10.961705)"
       x1="69.341629"
       y1="140.75861"
       x2="77.808296"
       y2="132.29195" />
    <linearGradient
       inkscape:collect="always"
       xlink:href="#linearGradient6071"
       id="linearGradient6589"
       gradientUnits="userSpaceOnUse"
       gradientTransform="translate(-230.66657,-35.361878)"
       x1="60.874962"
       y1="123.82529"
       x2="69.341629"
       y2="115.35862" />
    <linearGradient
       inkscape:collect="always"
       xlink:href="#linearGradient4677"
       id="linearGradient6591"
       gradientUnits="userSpaceOnUse"
       gradientTransform="translate(139.59148,-8.6731517)"
       x1="13.266802"
       y1="92.903227"
       x2="21.733468"
       y2="92.903227" />
    <linearGradient
       inkscape:collect="always"
       xlink:href="#linearGradient6081"
       id="linearGradient6593"
       gradientUnits="userSpaceOnUse"
       gradientTransform="translate(-247.59991,-35.361878)"
       x1="69.341629"
       y1="123.82529"
       x2="77.808296"
       y2="115.35862" />
    <linearGradient
       inkscape:collect="always"
       xlink:href="#linearGradient6091"
       id="linearGradient6595"
       gradientUnits="userSpaceOnUse"
       gradientTransform="translate(-213.73324,-35.361878)"
       x1="52.408295"
       y1="132.29195"
       x2="60.874962"
       y2="123.82529" />
    <linearGradient
       inkscape:collect="always"
       xlink:href="#linearGradient6101"
       id="linearGradient6597"
       gradientUnits="userSpaceOnUse"
       gradientTransform="translate(-230.66657,-35.361878)"
       x1="60.874962"
       y1="132.29195"
       x2="69.341629"
       y2="123.82528" />
    <linearGradient
       inkscape:collect="always"
       xlink:href="#linearGradient6159"
       id="linearGradient6599"
       gradientUnits="userSpaceOnUse"
       gradientTransform="translate(-100.44999,-220.75535)"
       x1="-77.808296"
       y1="123.82529"
       x2="-69.870796"
       y2="132.82111" />
    <linearGradient
       inkscape:collect="always"
       xlink:href="#linearGradient6123"
       id="linearGradient6601"
       gradientUnits="userSpaceOnUse"
       gradientTransform="translate(-213.73324,-35.361878)"
       x1="52.408295"
       y1="140.75861"
       x2="60.874962"
       y2="132.29195" />
    <linearGradient
       inkscape:collect="always"
       xlink:href="#linearGradient6133"
       id="linearGradient6603"
       gradientUnits="userSpaceOnUse"
       gradientTransform="translate(-230.66657,-35.361878)"
       x1="60.874962"
       y1="140.75861"
       x2="69.341629"
       y2="132.29195" />
    <linearGradient
       inkscape:collect="always"
       xlink:href="#linearGradient6151"
       id="linearGradient6605"
       gradientUnits="userSpaceOnUse"
       gradientTransform="translate(-247.59991,-35.361878)"
       x1="69.341629"
       y1="140.75861"
       x2="77.808296"
       y2="132.29195" />
    <radialGradient
       inkscape:collect="always"
       xlink:href="#linearGradient6613"
       id="radialGradient6617"
       cx="57.905788"
       cy="170.2466"
       fx="57.905788"
       fy="170.2466"
       r="4.2333331"
       gradientUnits="userSpaceOnUse"
       gradientTransform="matrix(1.8468976,3.1853151e-6,-3.6911147e-6,2.1401684,-49.663307,-186.68276)" />
    <radialGradient
       inkscape:collect="always"
       xlink:href="#linearGradient6627"
       id="radialGradient6621"
       gradientUnits="userSpaceOnUse"
       gradientTransform="matrix(2.6990354,-0.03109396,0.0315653,2.7399487,-95.914862,-286.99261)"
       cx="57.905788"
       cy="170.2466"
       fx="57.905788"
       fy="170.2466"
       r="4.2333331" />
    <radialGradient
       inkscape:collect="always"
       xlink:href="#linearGradient6637"
       id="radialGradient6631"
       gradientUnits="userSpaceOnUse"
       gradientTransform="matrix(1.8468976,3.1853151e-6,-3.6911147e-6,2.1401684,-41.19661,-169.74938)"
       cx="57.905788"
       cy="170.2466"
       fx="57.905788"
       fy="170.2466"
       r="4.2333331" />
    <radialGradient
       inkscape:collect="always"
       xlink:href="#linearGradient6647"
       id="radialGradient6641"
       gradientUnits="userSpaceOnUse"
       gradientTransform="matrix(1.8468976,3.1853151e-6,-3.6911147e-6,2.1401684,-41.19664,-178.21609)"
       cx="57.905788"
       cy="170.2466"
       fx="57.905788"
       fy="170.2466"
       r="4.2333331" />
    <radialGradient
       inkscape:collect="always"
       xlink:href="#linearGradient6657"
       id="radialGradient6651"
       gradientUnits="userSpaceOnUse"
       gradientTransform="matrix(1.8468976,3.1853151e-6,-3.6911147e-6,2.1401684,-58.129974,-178.21608)"
       cx="57.905788"
       cy="170.2466"
       fx="57.905788"
       fy="170.2466"
       r="4.2333331" />
    <radialGradient
       inkscape:collect="always"
       xlink:href="#linearGradient6667"
       id="radialGradient6661"
       gradientUnits="userSpaceOnUse"
       gradientTransform="matrix(2.9405965,-0.01379356,0.014018,2.9884402,-123.84861,-313.36587)"
       cx="57.905788"
       cy="170.2466"
       fx="57.905788"
       fy="170.2466"
       r="4.2333331" />
    <radialGradient
       inkscape:collect="always"
       xlink:href="#linearGradient6677"
       id="radialGradient6671"
       gradientUnits="userSpaceOnUse"
       gradientTransform="matrix(2.4718251,0.01903373,-0.02232385,2.8990992,-82.0503,-300.05679)"
       cx="57.905788"
       cy="170.2466"
       fx="57.905788"
       fy="170.2466"
       r="4.2333331" />
    <radialGradient
       inkscape:collect="always"
       xlink:href="#linearGradient6687"
       id="radialGradient6681"
       gradientUnits="userSpaceOnUse"
       gradientTransform="matrix(2.4718251,0.01903373,-0.02232385,2.8990992,-82.0503,-308.52346)"
       cx="57.905788"
       cy="170.2466"
       fx="57.905788"
       fy="170.2466"
       r="4.2333331" />
  </defs>
  <sodipodi:namedview
     id="base"
     pagecolor="#ffffff"
     bordercolor="#666666"
     borderopacity="1.0"
     inkscape:pageopacity="0.0"
     inkscape:pageshadow="2"
     inkscape:zoom="1.4"
     inkscape:cx="65.025635"
     inkscape:cy="372.89355"
     inkscape:document-units="mm"
     inkscape:current-layer="layer1"
     showgrid="false"
     inkscape:object-nodes="false"
     inkscape:snap-bbox="true"
     inkscape:bbox-nodes="true"
     inkscape:snap-bbox-edge-midpoints="false"
     inkscape:window-width="1366"
     inkscape:window-height="740"
     inkscape:window-x="0"
     inkscape:window-y="0"
     inkscape:window-maximized="1"
     showguides="false" />
  <metadata
     id="metadata5">
    <rdf:RDF>
      <cc:Work
         rdf:about="">
        <dc:format>image/svg+xml</dc:format>
        <dc:type
           rdf:resource="http://purl.org/dc/dcmitype/StillImage" />
        <dc:title />
      </cc:Work>
    </rdf:RDF>
  </metadata>
  <g
     inkscape:label="Layer 1"
     inkscape:groupmode="layer"
     id="layer1">
    <rect
       style="fill:#171c1c;fill-opacity:0.91764706;fill-rule:nonzero;stroke:#ffffff;stroke-width:0.87577081;stroke-linecap:round;stroke-miterlimit:4;stroke-dasharray:7.00616646, 1.75154162, 0.87577081, 1.75154162;stroke-dashoffset:0;stroke-opacity:0.73404254;paint-order:stroke fill markers"
       id="rect4604"
       width="50.270832"
       height="41.104912"
       x="90.094658"
       y="73.093811"
       ry="1.0891283" />
    <g
       id="g4902"
       transform="translate(39.962447,-8.4670029)" />
    <rect
       style="fill:none;fill-opacity:1;stroke:url(#linearGradient4679);stroke-width:0.27311304;stroke-miterlimit:4;stroke-dasharray:none;stroke-dashoffset:0;stroke-opacity:0.38297873"
       id="rect4225"
       width="8.193553"
       height="8.1935539"
       x="53.279846"
       y="80.349236"
       ry="1.017373"
       inkscape:export-xdpi="95.999634"
       inkscape:export-ydpi="95.999634" />
    <rect
       ry="1.0629475"
       y="80.741844"
       x="62.139122"
       height="7.4083333"
       width="7.4083333"
       id="rect4559"
       style="fill:#38aade;fill-opacity:1;fill-rule:nonzero;stroke:#5339ca;stroke-width:1.05833328;stroke-linecap:round;stroke-miterlimit:4;stroke-dasharray:none;stroke-dashoffset:0.4378854;stroke-opacity:1;paint-order:stroke fill markers"
       inkscape:export-xdpi="95.999634"
       inkscape:export-ydpi="95.999634" />
    <rect
       inkscape:export-ydpi="95.999634"
       inkscape:export-xdpi="95.999634"
       style="fill:#ed136e;fill-opacity:1;fill-rule:nonzero;stroke:#fcffff;stroke-width:1.05833328;stroke-linecap:round;stroke-miterlimit:4;stroke-dasharray:none;stroke-dashoffset:0.4378854;stroke-opacity:1;paint-order:stroke fill markers"
       id="rect4950"
       width="7.4083333"
       height="7.4083333"
       x="70.605789"
       y="80.741844"
       ry="1.0629475" />
    <rect
       inkscape:export-ydpi="95.999634"
       inkscape:export-xdpi="95.999634"
       style="fill:#fbfc3a;fill-opacity:1;fill-rule:nonzero;stroke:#f9771b;stroke-width:1.05833328;stroke-linecap:round;stroke-miterlimit:4;stroke-dasharray:none;stroke-dashoffset:0.4378854;stroke-opacity:1;paint-order:stroke fill markers"
       id="rect4960"
       width="7.4083333"
       height="7.4083333"
       x="53.672455"
       y="89.208511"
       ry="1.0629475" />
    <rect
       ry="1.0629475"
       y="89.208511"
       x="62.139122"
       height="7.4083333"
       width="7.4083333"
       id="rect4962"
       style="fill:#1efa1f;fill-opacity:1;fill-rule:nonzero;stroke:#01901f;stroke-width:1.05833328;stroke-linecap:round;stroke-miterlimit:4;stroke-dasharray:none;stroke-dashoffset:0.4378854;stroke-opacity:1;paint-order:stroke fill markers"
       inkscape:export-xdpi="95.999634"
       inkscape:export-ydpi="95.999634" />
    <rect
       inkscape:export-ydpi="95.999634"
       inkscape:export-xdpi="95.999634"
       style="fill:#ffffff;fill-opacity:0.97340423;fill-rule:nonzero;stroke:#2f0053;stroke-width:1.05833328;stroke-linecap:round;stroke-miterlimit:4;stroke-dasharray:none;stroke-dashoffset:0.4378854;stroke-opacity:1;paint-order:stroke fill markers"
       id="rect4964"
       width="7.4083333"
       height="7.4083333"
       x="70.605789"
       y="89.208511"
       ry="1.0629475" />
    <rect
       ry="1.0629475"
       y="97.675179"
       x="53.672455"
       height="7.4083333"
       width="7.4083333"
       id="rect4966"
       style="fill:#ff88d6;fill-opacity:1;fill-rule:nonzero;stroke:#9b1aec;stroke-width:1.05833328;stroke-linecap:round;stroke-miterlimit:4;stroke-dasharray:none;stroke-dashoffset:0.4378854;stroke-opacity:1;paint-order:stroke fill markers"
       inkscape:export-xdpi="95.999634"
       inkscape:export-ydpi="95.999634" />
    <rect
       inkscape:export-ydpi="95.999634"
       inkscape:export-xdpi="95.999634"
       style="fill:#275b60;fill-opacity:1;fill-rule:nonzero;stroke:#6de01e;stroke-width:1.05833328;stroke-linecap:round;stroke-miterlimit:4;stroke-dasharray:none;stroke-dashoffset:0.4378854;stroke-opacity:1;paint-order:stroke fill markers"
       id="rect4968"
       width="7.4083333"
       height="7.4083333"
       x="62.139122"
       y="97.675179"
       ry="1.0629475" />
    <rect
       inkscape:export-ydpi="95.999634"
       inkscape:export-xdpi="95.999634"
       style="fill:#38aade;fill-opacity:0.39215687;fill-rule:nonzero;stroke:#5339ca;stroke-width:1.05833328;stroke-linecap:round;stroke-miterlimit:4;stroke-dasharray:none;stroke-dashoffset:0.4378854;stroke-opacity:0.39215687;paint-order:stroke fill markers"
       id="rect6059"
       width="7.4083333"
       height="7.4083333"
       x="70.605789"
       y="97.675179"
       ry="1.0629475" />
    <rect
       inkscape:export-ydpi="95.999634"
       inkscape:export-xdpi="95.999634"
       style="fill:url(#linearGradient6073);fill-opacity:1;fill-rule:nonzero;stroke:#000000;stroke-width:1.05833328;stroke-linecap:round;stroke-miterlimit:4;stroke-dasharray:none;stroke-dashoffset:0.4378854;stroke-opacity:1;paint-order:stroke fill markers"
       id="rect6061"
       width="7.4083333"
       height="7.4083333"
       x="-68.812462"
       y="115.88779"
       ry="1.0629475"
       transform="scale(-1,1)" />
    <rect
       inkscape:export-ydpi="95.999634"
       inkscape:export-xdpi="95.999634"
       ry="1.017373"
       y="115.49518"
       x="52.544853"
       height="8.1935539"
       width="8.193553"
       id="rect6063"
       style="fill:#ffffff;fill-opacity:1;stroke:url(#linearGradient6065);stroke-width:0.27311304;stroke-miterlimit:4;stroke-dasharray:none;stroke-dashoffset:0;stroke-opacity:0.38297873" />
    <rect
       ry="1.0629475"
       y="115.88779"
       x="-77.279129"
       height="7.4083333"
       width="7.4083333"
       id="rect6075"
       style="fill:url(#linearGradient6083);fill-opacity:1;fill-rule:nonzero;stroke:#1c0000;stroke-width:1.05833328;stroke-linecap:round;stroke-miterlimit:4;stroke-dasharray:none;stroke-dashoffset:0.4378854;stroke-opacity:1;paint-order:stroke fill markers"
       inkscape:export-xdpi="95.999634"
       inkscape:export-ydpi="95.999634"
       transform="scale(-1,1)" />
    <rect
       ry="1.0629475"
       y="124.35445"
       x="-60.345795"
       height="7.4083333"
       width="7.4083333"
       id="rect6085"
       style="fill:url(#linearGradient6093);fill-opacity:1;fill-rule:nonzero;stroke:#001200;stroke-width:1.05833328;stroke-linecap:round;stroke-miterlimit:4;stroke-dasharray:none;stroke-dashoffset:0.4378854;stroke-opacity:1;paint-order:stroke fill markers"
       inkscape:export-xdpi="95.999634"
       inkscape:export-ydpi="95.999634"
       transform="scale(-1,1)" />
    <rect
       inkscape:export-ydpi="95.999634"
       inkscape:export-xdpi="95.999634"
       style="fill:url(#linearGradient6103);fill-opacity:1;fill-rule:nonzero;stroke:#00000a;stroke-width:1.05833328;stroke-linecap:round;stroke-miterlimit:4;stroke-dasharray:none;stroke-dashoffset:0.4378854;stroke-opacity:1;paint-order:stroke fill markers"
       id="rect6095"
       width="7.4083333"
       height="7.4083333"
       x="-68.812462"
       y="124.35445"
       ry="1.0629475"
       transform="scale(-1,1)" />
    <rect
       ry="1.0629475"
       y="-131.76279"
       x="-77.279129"
       height="7.4083333"
       width="7.4083333"
       id="rect6105"
       style="fill:url(#linearGradient6161);fill-opacity:1;fill-rule:nonzero;stroke:#000001;stroke-width:1.05833328;stroke-linecap:round;stroke-miterlimit:4;stroke-dasharray:none;stroke-dashoffset:0.4378854;stroke-opacity:1;paint-order:stroke fill markers"
       inkscape:export-xdpi="95.999634"
       inkscape:export-ydpi="95.999634"
       transform="scale(-1)" />
    <rect
       inkscape:export-ydpi="95.999634"
       inkscape:export-xdpi="95.999634"
       style="fill:url(#linearGradient6125);fill-opacity:1;fill-rule:nonzero;stroke:#001a05;stroke-width:1.05833328;stroke-linecap:round;stroke-miterlimit:4;stroke-dasharray:none;stroke-dashoffset:0.4378854;stroke-opacity:1;paint-order:stroke fill markers"
       id="rect6117"
       width="7.4083333"
       height="7.4083333"
       x="-60.345795"
       y="132.82111"
       ry="1.0629475"
       transform="scale(-1,1)" />
    <rect
       ry="1.0629475"
       y="132.82111"
       x="-68.812462"
       height="7.4083333"
       width="7.4083333"
       id="rect6127"
       style="fill:url(#linearGradient6135);fill-opacity:1;fill-rule:nonzero;stroke:#00001a;stroke-width:1.05833328;stroke-linecap:round;stroke-miterlimit:4;stroke-dasharray:none;stroke-dashoffset:0.4378854;stroke-opacity:1;paint-order:stroke fill markers"
       inkscape:export-xdpi="95.999634"
       inkscape:export-ydpi="95.999634"
       transform="scale(-1,1)" />
    <rect
       ry="1.0629475"
       y="132.82111"
       x="-77.279129"
       height="7.4083333"
       width="7.4083333"
       id="rect6137"
       style="fill:url(#linearGradient6153);fill-opacity:1;fill-rule:nonzero;stroke:none;stroke-width:1.05833328;stroke-linecap:round;stroke-miterlimit:4;stroke-dasharray:none;stroke-dashoffset:0.4378854;stroke-opacity:1;paint-order:stroke fill markers"
       inkscape:export-xdpi="95.999634"
       inkscape:export-ydpi="95.999634"
       transform="scale(-1,1)" />
    <rect
       transform="scale(-1,1)"
       ry="1.0629475"
       y="123.18386"
       x="-102.67239"
       height="7.4083333"
       width="7.4083333"
       id="rect6163"
       style="fill:url(#linearGradient6181);fill-opacity:1;fill-rule:nonzero;stroke:none;stroke-width:1.05833328;stroke-linecap:round;stroke-miterlimit:4;stroke-dasharray:none;stroke-dashoffset:0.4378854;stroke-opacity:1;paint-order:stroke fill markers"
       inkscape:export-xdpi="95.999634"
       inkscape:export-ydpi="95.999634" />
    <rect
       style="fill:#ffffff;fill-opacity:1;stroke:url(#linearGradient6183);stroke-width:0.27311304;stroke-miterlimit:4;stroke-dasharray:none;stroke-dashoffset:0;stroke-opacity:0.38297873"
       id="rect6165"
       width="8.193553"
       height="8.1935539"
       x="86.404778"
       y="122.79125"
       ry="1.017373"
       inkscape:export-xdpi="95.999634"
       inkscape:export-ydpi="95.999634" />
    <rect
       transform="scale(-1,1)"
       inkscape:export-ydpi="95.999634"
       inkscape:export-xdpi="95.999634"
       style="fill:url(#linearGradient6185);fill-opacity:1;fill-rule:nonzero;stroke:none;stroke-width:1.05833328;stroke-linecap:round;stroke-miterlimit:4;stroke-dasharray:none;stroke-dashoffset:0.4378854;stroke-opacity:1;paint-order:stroke fill markers"
       id="rect6167"
       width="7.4083333"
       height="7.4083333"
       x="-111.13906"
       y="123.18386"
       ry="1.0629475" />
    <rect
       transform="scale(-1,1)"
       inkscape:export-ydpi="95.999634"
       inkscape:export-xdpi="95.999634"
       style="fill:url(#linearGradient6187);fill-opacity:1;fill-rule:nonzero;stroke:none;stroke-width:1.05833328;stroke-linecap:round;stroke-miterlimit:4;stroke-dasharray:none;stroke-dashoffset:0.4378854;stroke-opacity:1;paint-order:stroke fill markers"
       id="rect6169"
       width="7.4083333"
       height="7.4083333"
       x="-94.205719"
       y="131.65051"
       ry="1.0629475" />
    <rect
       transform="scale(-1,1)"
       ry="1.0629475"
       y="131.65051"
       x="-102.67239"
       height="7.4083333"
       width="7.4083333"
       id="rect6171"
       style="fill:url(#linearGradient6189);fill-opacity:1;fill-rule:nonzero;stroke:none;stroke-width:1.05833328;stroke-linecap:round;stroke-miterlimit:4;stroke-dasharray:none;stroke-dashoffset:0.4378854;stroke-opacity:1;paint-order:stroke fill markers"
       inkscape:export-xdpi="95.999634"
       inkscape:export-ydpi="95.999634" />
    <rect
       transform="scale(-1)"
       inkscape:export-ydpi="95.999634"
       inkscape:export-xdpi="95.999634"
       style="fill:url(#linearGradient6191);fill-opacity:1;fill-rule:nonzero;stroke:none;stroke-width:1.05833328;stroke-linecap:round;stroke-miterlimit:4;stroke-dasharray:none;stroke-dashoffset:0.4378854;stroke-opacity:1;paint-order:stroke fill markers"
       id="rect6173"
       width="7.4083333"
       height="7.4083333"
       x="-111.13906"
       y="-139.05885"
       ry="1.0629475" />
    <rect
       transform="scale(-1,1)"
       ry="1.0629475"
       y="140.11717"
       x="-94.205719"
       height="7.4083333"
       width="7.4083333"
       id="rect6175"
       style="fill:url(#linearGradient6193);fill-opacity:1;fill-rule:nonzero;stroke:none;stroke-width:1.05833328;stroke-linecap:round;stroke-miterlimit:4;stroke-dasharray:none;stroke-dashoffset:0.4378854;stroke-opacity:1;paint-order:stroke fill markers"
       inkscape:export-xdpi="95.999634"
       inkscape:export-ydpi="95.999634" />
    <rect
       transform="scale(-1,1)"
       inkscape:export-ydpi="95.999634"
       inkscape:export-xdpi="95.999634"
       style="fill:url(#linearGradient6195);fill-opacity:1;fill-rule:nonzero;stroke:none;stroke-width:1.05833328;stroke-linecap:round;stroke-miterlimit:4;stroke-dasharray:none;stroke-dashoffset:0.4378854;stroke-opacity:1;paint-order:stroke fill markers"
       id="rect6177"
       width="7.4083333"
       height="7.4083333"
       x="-102.67239"
       y="140.11717"
       ry="1.0629475" />
    <rect
       transform="scale(-1,1)"
       inkscape:export-ydpi="95.999634"
       inkscape:export-xdpi="95.999634"
       style="fill:url(#linearGradient6197);fill-opacity:1;fill-rule:nonzero;stroke:none;stroke-width:1.05833328;stroke-linecap:round;stroke-miterlimit:4;stroke-dasharray:none;stroke-dashoffset:0.4378854;stroke-opacity:1;paint-order:stroke fill markers"
       id="rect6179"
       width="7.4083333"
       height="7.4083333"
       x="-111.13906"
       y="140.11717"
       ry="1.0629475" />
    <rect
       inkscape:export-ydpi="95.999634"
       inkscape:export-xdpi="95.999634"
       style="fill:url(#linearGradient6335);fill-opacity:1;fill-rule:nonzero;stroke:#38aade;stroke-width:1.05833328;stroke-linecap:round;stroke-miterlimit:4;stroke-dasharray:none;stroke-dashoffset:0.4378854;stroke-opacity:0.73333333;paint-order:stroke fill markers"
       id="rect6317"
       width="7.4083333"
       height="7.4083333"
       x="-145.29416"
       y="126.84949"
       ry="1.0629475"
       transform="scale(-1,1)" />
    <rect
       inkscape:export-ydpi="95.999634"
       inkscape:export-xdpi="95.999634"
       ry="1.017373"
       y="126.45688"
       x="129.02652"
       height="8.1935539"
       width="8.193553"
       id="rect6319"
       style="fill:#ffffff;fill-opacity:1;stroke:url(#linearGradient6337);stroke-width:0.27311304;stroke-miterlimit:4;stroke-dasharray:none;stroke-dashoffset:0;stroke-opacity:0.38297873" />
    <rect
       ry="1.0629475"
       y="126.84949"
       x="-153.7608"
       height="7.4083333"
       width="7.4083333"
       id="rect6321"
       style="fill:url(#linearGradient6339);fill-opacity:1;fill-rule:nonzero;stroke:#ed136e;stroke-width:1.05833328;stroke-linecap:round;stroke-miterlimit:4;stroke-dasharray:none;stroke-dashoffset:0.4378854;stroke-opacity:0.76470588;paint-order:stroke fill markers"
       inkscape:export-xdpi="95.999634"
       inkscape:export-ydpi="95.999634"
       transform="scale(-1,1)" />
    <rect
       ry="1.0629475"
       y="135.31616"
       x="-136.82747"
       height="7.4083333"
       width="7.4083333"
       id="rect6323"
       style="fill:url(#linearGradient6341);fill-opacity:1;fill-rule:nonzero;stroke:#fefe11;stroke-width:1.05833328;stroke-linecap:round;stroke-miterlimit:4;stroke-dasharray:none;stroke-dashoffset:0.4378854;stroke-opacity:0.71372549;paint-order:stroke fill markers"
       inkscape:export-xdpi="95.999634"
       inkscape:export-ydpi="95.999634"
       transform="scale(-1,1)" />
    <rect
       inkscape:export-ydpi="95.999634"
       inkscape:export-xdpi="95.999634"
       style="fill:url(#linearGradient6343);fill-opacity:1;fill-rule:nonzero;stroke:#1efa20;stroke-width:1.05833328;stroke-linecap:round;stroke-miterlimit:4;stroke-dasharray:none;stroke-dashoffset:0.4378854;stroke-opacity:0.76078431;paint-order:stroke fill markers"
       id="rect6325"
       width="7.4083333"
       height="7.4083333"
       x="-145.29416"
       y="135.31616"
       ry="1.0629475"
       transform="scale(-1,1)" />
    <rect
       ry="1.0629475"
       y="-142.72449"
       x="-153.7608"
       height="7.4083333"
       width="7.4083333"
       id="rect6327"
       style="fill:url(#linearGradient6345);fill-opacity:1;fill-rule:nonzero;stroke:#f73d00;stroke-width:1.05833328;stroke-linecap:round;stroke-miterlimit:4;stroke-dasharray:none;stroke-dashoffset:0.4378854;stroke-opacity:0.78627451;paint-order:stroke fill markers"
       inkscape:export-xdpi="95.999634"
       inkscape:export-ydpi="95.999634"
       transform="scale(-1)" />
    <rect
       inkscape:export-ydpi="95.999634"
       inkscape:export-xdpi="95.999634"
       style="fill:url(#linearGradient6347);fill-opacity:1;fill-rule:nonzero;stroke:#ff0300;stroke-width:1.05833328;stroke-linecap:round;stroke-miterlimit:4;stroke-dasharray:none;stroke-dashoffset:0.4378854;stroke-opacity:0.69411765;paint-order:stroke fill markers"
       id="rect6329"
       width="7.4083333"
       height="7.4083333"
       x="-136.82747"
       y="143.78281"
       ry="1.0629475"
       transform="scale(-1,1)" />
    <rect
       ry="1.0629475"
       y="143.78281"
       x="-145.29416"
       height="7.4083333"
       width="7.4083333"
       id="rect6331"
       style="fill:url(#linearGradient6349);fill-opacity:1;fill-rule:nonzero;stroke:#273060;stroke-width:1.05833328;stroke-linecap:round;stroke-miterlimit:4;stroke-dasharray:none;stroke-dashoffset:0.4378854;stroke-opacity:0.73897059;paint-order:stroke fill markers"
       inkscape:export-xdpi="95.999634"
       inkscape:export-ydpi="95.999634"
       transform="scale(-1,1)" />
    <rect
       ry="1.0629475"
       y="143.78281"
       x="-153.7608"
       height="7.4083333"
       width="7.4083333"
       id="rect6333"
       style="fill:url(#linearGradient6351);fill-opacity:1;fill-rule:nonzero;stroke:none;stroke-width:1.05833328;stroke-linecap:round;stroke-miterlimit:4;stroke-dasharray:none;stroke-dashoffset:0.4378854;stroke-opacity:1;paint-order:stroke fill markers"
       inkscape:export-xdpi="95.999634"
       inkscape:export-ydpi="95.999634"
       transform="scale(-1,1)" />
    <rect
       transform="scale(-1,1)"
       ry="1.0629475"
       y="80.525909"
       x="-169.26244"
       height="7.4083333"
       width="7.4083333"
       id="rect6571"
       style="fill:url(#linearGradient6589);fill-opacity:1;fill-rule:nonzero;stroke:#000000;stroke-width:1.05833328;stroke-linecap:round;stroke-miterlimit:4;stroke-dasharray:none;stroke-dashoffset:0.4378854;stroke-opacity:1;paint-order:stroke fill markers"
       inkscape:export-xdpi="95.999634"
       inkscape:export-ydpi="95.999634" />
    <rect
       style="fill:#ffffff;fill-opacity:1;stroke:url(#linearGradient6591);stroke-width:0.27311304;stroke-miterlimit:4;stroke-dasharray:none;stroke-dashoffset:0;stroke-opacity:0.38297873"
       id="rect6573"
       width="8.193553"
       height="8.1935539"
       x="152.99483"
       y="80.133301"
       ry="1.017373"
       inkscape:export-xdpi="95.999634"
       inkscape:export-ydpi="95.999634" />
    <rect
       transform="scale(-1,1)"
       inkscape:export-ydpi="95.999634"
       inkscape:export-xdpi="95.999634"
       style="fill:url(#linearGradient6593);fill-opacity:1;fill-rule:nonzero;stroke:#1c0000;stroke-width:1.05833328;stroke-linecap:round;stroke-miterlimit:4;stroke-dasharray:none;stroke-dashoffset:0.4378854;stroke-opacity:1;paint-order:stroke fill markers"
       id="rect6575"
       width="7.4083333"
       height="7.4083333"
       x="-177.72911"
       y="80.525909"
       ry="1.0629475" />
    <rect
       transform="scale(-1,1)"
       inkscape:export-ydpi="95.999634"
       inkscape:export-xdpi="95.999634"
       style="fill:url(#linearGradient6595);fill-opacity:1;fill-rule:nonzero;stroke:#001200;stroke-width:1.05833328;stroke-linecap:round;stroke-miterlimit:4;stroke-dasharray:none;stroke-dashoffset:0.4378854;stroke-opacity:1;paint-order:stroke fill markers"
       id="rect6577"
       width="7.4083333"
       height="7.4083333"
       x="-160.79578"
       y="88.992569"
       ry="1.0629475" />
    <rect
       transform="scale(-1,1)"
       ry="1.0629475"
       y="88.992569"
       x="-169.26244"
       height="7.4083333"
       width="7.4083333"
       id="rect6579"
       style="fill:url(#linearGradient6597);fill-opacity:1;fill-rule:nonzero;stroke:#00000a;stroke-width:1.05833328;stroke-linecap:round;stroke-miterlimit:4;stroke-dasharray:none;stroke-dashoffset:0.4378854;stroke-opacity:1;paint-order:stroke fill markers"
       inkscape:export-xdpi="95.999634"
       inkscape:export-ydpi="95.999634" />
    <rect
       transform="scale(-1)"
       inkscape:export-ydpi="95.999634"
       inkscape:export-xdpi="95.999634"
       style="fill:url(#linearGradient6599);fill-opacity:1;fill-rule:nonzero;stroke:#000001;stroke-width:1.05833328;stroke-linecap:round;stroke-miterlimit:4;stroke-dasharray:none;stroke-dashoffset:0.4378854;stroke-opacity:1;paint-order:stroke fill markers"
       id="rect6581"
       width="7.4083333"
       height="7.4083333"
       x="-177.72911"
       y="-96.400909"
       ry="1.0629475" />
    <rect
       transform="scale(-1,1)"
       ry="1.0629475"
       y="97.459229"
       x="-160.79578"
       height="7.4083333"
       width="7.4083333"
       id="rect6583"
       style="fill:url(#linearGradient6601);fill-opacity:1;fill-rule:nonzero;stroke:#001a05;stroke-width:1.05833328;stroke-linecap:round;stroke-miterlimit:4;stroke-dasharray:none;stroke-dashoffset:0.4378854;stroke-opacity:1;paint-order:stroke fill markers"
       inkscape:export-xdpi="95.999634"
       inkscape:export-ydpi="95.999634" />
    <rect
       transform="scale(-1,1)"
       inkscape:export-ydpi="95.999634"
       inkscape:export-xdpi="95.999634"
       style="fill:url(#linearGradient6603);fill-opacity:1;fill-rule:nonzero;stroke:#00001a;stroke-width:1.05833328;stroke-linecap:round;stroke-miterlimit:4;stroke-dasharray:none;stroke-dashoffset:0.4378854;stroke-opacity:1;paint-order:stroke fill markers"
       id="rect6585"
       width="7.4083333"
       height="7.4083333"
       x="-169.26244"
       y="97.459229"
       ry="1.0629475" />
    <rect
       transform="scale(-1,1)"
       inkscape:export-ydpi="95.999634"
       inkscape:export-xdpi="95.999634"
       style="fill:url(#linearGradient6605);fill-opacity:1;fill-rule:nonzero;stroke:none;stroke-width:1.05833328;stroke-linecap:round;stroke-miterlimit:4;stroke-dasharray:none;stroke-dashoffset:0.4378854;stroke-opacity:1;paint-order:stroke fill markers"
       id="rect6587"
       width="7.4083333"
       height="7.4083333"
       x="-177.72911"
       y="97.459229"
       ry="1.0629475" />
    <rect
       inkscape:export-ydpi="95.999634"
       inkscape:export-xdpi="95.999634"
       style="fill:url(#radialGradient6617);fill-opacity:1;fill-rule:nonzero;stroke:#000000;stroke-width:0.81935489;stroke-linecap:round;stroke-miterlimit:4;stroke-dasharray:none;stroke-dashoffset:0.4378854;stroke-opacity:1;paint-order:stroke fill markers"
       id="rect6607"
       width="7.6473117"
       height="7.6473117"
       x="53.458473"
       y="173.85017"
       ry="0.54544878" />
    <rect
       ry="0.54544878"
       y="173.85017"
       x="61.92514"
       height="7.6473117"
       width="7.6473117"
       id="rect6619"
       style="fill:url(#radialGradient6621);fill-opacity:1;fill-rule:nonzero;stroke:#000000;stroke-width:0.81935489;stroke-linecap:round;stroke-miterlimit:4;stroke-dasharray:none;stroke-dashoffset:0.4378854;stroke-opacity:1;paint-order:stroke fill markers"
       inkscape:export-xdpi="95.999634"
       inkscape:export-ydpi="95.999634" />
    <rect
       inkscape:export-ydpi="95.999634"
       inkscape:export-xdpi="95.999634"
       style="fill:url(#radialGradient6631);fill-opacity:1;fill-rule:nonzero;stroke:#000000;stroke-width:0.81935489;stroke-linecap:round;stroke-miterlimit:4;stroke-dasharray:none;stroke-dashoffset:0.4378854;stroke-opacity:1;paint-order:stroke fill markers"
       id="rect6629"
       width="7.6473117"
       height="7.6473117"
       x="61.925171"
       y="190.78352"
       ry="0.54544878" />
    <rect
       ry="0.54544878"
       y="182.31683"
       x="61.92514"
       height="7.6473117"
       width="7.6473117"
       id="rect6639"
       style="fill:url(#radialGradient6641);fill-opacity:1;fill-rule:nonzero;stroke:#000000;stroke-width:0.81941456;stroke-linecap:round;stroke-miterlimit:4;stroke-dasharray:none;stroke-dashoffset:0.4378854;stroke-opacity:1;paint-order:stroke fill markers"
       inkscape:export-xdpi="95.999634"
       inkscape:export-ydpi="95.999634" />
    <rect
       ry="0.54544878"
       y="182.31683"
       x="44.991806"
       height="7.6473117"
       width="7.6473117"
       id="rect6649"
       style="fill:url(#radialGradient6651);fill-opacity:1;fill-rule:nonzero;stroke:#000000;stroke-width:0.81935489;stroke-linecap:round;stroke-miterlimit:4;stroke-dasharray:none;stroke-dashoffset:0.4378854;stroke-opacity:1;paint-order:stroke fill markers"
       inkscape:export-xdpi="95.999634"
       inkscape:export-ydpi="95.999634" />
    <rect
       inkscape:export-ydpi="95.999634"
       inkscape:export-xdpi="95.999634"
       style="fill:url(#radialGradient6661);fill-opacity:1;fill-rule:nonzero;stroke:#000000;stroke-width:0.81935489;stroke-linecap:round;stroke-miterlimit:4;stroke-dasharray:none;stroke-dashoffset:0.4378854;stroke-opacity:1;paint-order:stroke fill markers"
       id="rect6659"
       width="7.6473117"
       height="7.6473117"
       x="44.991806"
       y="190.78349"
       ry="0.54544878" />
    <rect
       ry="0.54544878"
       y="190.78349"
       x="53.458473"
       height="7.6473117"
       width="7.6473117"
       id="rect6669"
       style="fill:url(#radialGradient6671);fill-opacity:1;fill-rule:nonzero;stroke:#000000;stroke-width:0.81935489;stroke-linecap:round;stroke-miterlimit:4;stroke-dasharray:none;stroke-dashoffset:0.4378854;stroke-opacity:1;paint-order:stroke fill markers"
       inkscape:export-xdpi="95.999634"
       inkscape:export-ydpi="95.999634" />
    <rect
       inkscape:export-ydpi="95.999634"
       inkscape:export-xdpi="95.999634"
       style="fill:url(#radialGradient6681);fill-opacity:1;fill-rule:nonzero;stroke:#000000;stroke-width:0.81935489;stroke-linecap:round;stroke-miterlimit:4;stroke-dasharray:none;stroke-dashoffset:0.4378854;stroke-opacity:1;paint-order:stroke fill markers"
       id="rect6679"
       width="7.6473117"
       height="7.6473117"
       x="53.458473"
       y="182.31683"
       ry="0.54544878" />
    <rect
       ry="0.54544878"
       y="173.85017"
       x="44.991806"
       height="7.6473117"
       width="7.6473117"
       id="rect6689"
       style="fill:#ffffff;fill-opacity:0.09756099;fill-rule:nonzero;stroke:#00000a;stroke-width:0.81935489;stroke-linecap:round;stroke-miterlimit:4;stroke-dasharray:none;stroke-dashoffset:0.4378854;stroke-opacity:0.15447154;paint-order:stroke fill markers"
       inkscape:export-xdpi="95.999634"
       inkscape:export-ydpi="95.999634" />
  </g>
</svg>
